{"status":1,"msg":"OPERATION_SUCCESS","data":{"totalPages":18,"total":"346","page":2,"pageSize":20,"list":[{"id":"706","cate_id":"396","title":"\u725b\u60ca\u8bb6\u5b89\u683c\u65af\u96ea\u82b1\u725b\u5c0f\u6392","price":"95.00","img":"\/hyg2.0\/data\/upload\/item\/1704\/26\/59001e4b8699b_b.jpg","intro":"200g\/\u5305","is_book":"0","book_status":"booked","is_short":"0","url":"\/hyg2.0\/Item-index-id-706","book_remark":""},{"id":"686","cate_id":"396","title":"\u6fb3\u6d32\u96ea\u82b1\u725b\u4ed4\u9aa8","price":"58.00","img":"\/hyg2.0\/data\/upload\/item\/1704\/09\/58e9d420bea32_b.jpg","intro":"\u6fb3\u6d32\u8fdb\u53e3\uff0c\u603b\u91cd\u91cf190\u514b\u00b15","is_book":"0","book_status":"booked","is_short":"0","url":"\/hyg2.0\/Item-index-id-686","book_remark":""},{"id":"177","cate_id":"396","title":"\u4f1f\u4f6c\u9c7c\u5706","price":"15.00","img":"\/hyg2.0\/data\/upload\/item\/1612\/01\/583fde171d826_b.JPG","intro":"125g\/\u5305","is_book":"0","book_status":"booked","is_short":"0","url":"\/hyg2.0\/Item-index-id-177","book_remark":""},{"id":"81","cate_id":"396","title":"\u4f1f\u4f6c\u9c7c\u997c","price":"12.00","img":"\/hyg2.0\/data\/upload\/item\/1612\/01\/583fdfd7b7353_b.JPG","intro":"125g\/\u5305","is_book":"1","book_status":"arrived","is_short":"1","url":"\/hyg2.0\/Item-index-id-81","book_remark":"\u5df2\u5230\u8d27"},{"id":"181","cate_id":"396","title":"\u6cd5\u56fd\u94f6\u9cd5\u9c7c","price":"190.00","img":"\/hyg2.0\/data\/upload\/item\/1611\/25\/5837f222200be_b.JPG","intro":"\u6b63\u89c4\u6e20\u9053\u6d77\u5173\u68c0\u9a8c\u68c0\u75ab\u540e\u5165\u5883\uff08\u975e\u88f8\u88c5\uff09\u653e\u5fc3\u8d2d\u4e70\uff01","is_book":"1","book_status":"arrived","is_short":"0","url":"\/hyg2.0\/Item-index-id-181","book_remark":"\u5df2\u5230\u8d27"},{"id":"431","cate_id":"390","title":"\u6cd5\u7f57\u7fa4\u5c9b\u4e09\u6587\u9c7c","price":"98.00","img":"\/hyg2.0\/data\/upload\/item\/1612\/14\/5850bb243cfed_b.JPG","intro":"280(\u00b110)\u514b\/\u76d2(\u9001\u82a5\u672b\u9171\u6cb9)\u30104\u670828\u65e5\u5468\u4e94\u5348\u540e\u5230\u5e97\u3011","is_book":"1","book_status":"filled","is_short":"0","url":"\/hyg2.0\/Item-index-id-431","book_remark":"\u8ba2\u5355\u5df2\u6ee1"},{"id":"602","cate_id":"396","title":"\u65b0\u897f\u5170\u957f\u5bff\u9c7c","price":"55.00","img":"\/hyg2.0\/data\/upload\/item\/1703\/06\/58bcd63390877_b.jpg","intro":"\u301055\u5143\/\u65a4\uff0c\u8bf7\u5148\u8054\u7cfb\u5ba2\u670d\u79f0\u5b8c\u91cd\u540e\u518d\u4e0b\u5355\u3011\u3002\u6bcf\u6761\u9c7c\u91cd\u91cf\u57282.5-3.5\u65a4\u5de6\u53f3","is_book":"0","book_status":"booked","is_short":"0","url":"\/hyg2.0\/Item-index-id-602","book_remark":""},{"id":"466","cate_id":"396","title":"\u897f\u73ed\u7259\u706b\u817f","price":"78.00","img":"\/hyg2.0\/data\/upload\/item\/1612\/24\/585ddeb11a7f0_b.JPG","intro":"78\u5143\/\u5305","is_book":"1","book_status":"arrived","is_short":"0","url":"\/hyg2.0\/Item-index-id-466","book_remark":"\u5df2\u5230\u8d27"},{"id":"481","cate_id":"395","title":"\u7cbe\u9009\u5efa\u5b81\u83b2\u5b50","price":"43.00","img":"\/hyg2.0\/data\/upload\/item\/1612\/30\/586615f40d3c5_b.JPG","intro":"43\u5143\/\u5305(250g)","is_book":"0","book_status":"booked","is_short":"0","url":"\/hyg2.0\/Item-index-id-481","book_remark":""},{"id":"480","cate_id":"402","title":"\u6d77\u9e2d\u86cb\u9165","price":"25.00","img":"\/hyg2.0\/data\/upload\/item\/1612\/30\/5865c06e1c203_b.JPG","intro":"25\u5143\/\u5305","is_book":"0","book_status":"booked","is_short":"0","url":"\/hyg2.0\/Item-index-id-480","book_remark":""},{"id":"495","cate_id":"402","title":"\u5609\u5e94\u5b50","price":"13.00","img":"\/hyg2.0\/data\/upload\/item\/1701\/01\/5868a8f460788_b.JPG","intro":"13\u5143\/\u7f50(150g)","is_book":"0","book_status":"booked","is_short":"0","url":"\/hyg2.0\/Item-index-id-495","book_remark":""},{"id":"491","cate_id":"402","title":"\u6c99\u742a\u739b","price":"28.00","img":"\/hyg2.0\/data\/upload\/item\/1701\/01\/58687f7855286_b.JPG","intro":"28\u5143\/\u5305(608g)\uff0c\u6709\u539f\u5473\u3001\u829d\u9ebb\u5473\u3001\u7ea2\u7cd6\u5473\uff0c\u4e09\u79cd\u53e3\u5473","is_book":"0","book_status":"filled","is_short":"0","url":"\/hyg2.0\/Item-index-id-491","book_remark":""},{"id":"492","cate_id":"402","title":"\u624b\u6495\u732a\u8089\u812f","price":"17.00","img":"\/hyg2.0\/data\/upload\/item\/1701\/01\/58688ad0d398d_b.JPG","intro":"17\u5143\/\u5305(100g)","is_book":"0","book_status":"booked","is_short":"0","url":"\/hyg2.0\/Item-index-id-492","book_remark":""},{"id":"645","cate_id":"390","title":"\u3010\u592a\u6e56\u9ed1\u3011\u4e94\u82b1\u8089","price":"33.00","img":"\/hyg2.0\/data\/upload\/item\/1703\/22\/58d22c9ad9603_b.jpg","intro":"350\u514b\/\u76d2\u301012\u53f7\u5468\u4e94\u5230\u5e97\u3011","is_book":"1","book_status":"filled","is_short":"0","url":"\/hyg2.0\/Item-index-id-645","book_remark":"\u8ba2\u5355\u5df2\u6ee1"},{"id":"646","cate_id":"390","title":"\u3010\u592a\u6e56\u9ed1\u3011\u5927\u6392\u7247","price":"23.00","img":"\/hyg2.0\/data\/upload\/item\/1703\/26\/58d73c5bae70e_b.jpg","intro":"350\u514b\/\u76d2\u301012\u53f7\u5468\u4e94\u5230\u5e97\u3011","is_book":"1","book_status":"filled","is_short":"0","url":"\/hyg2.0\/Item-index-id-646","book_remark":"\u8ba2\u5355\u5df2\u6ee1"},{"id":"648","cate_id":"390","title":"\u3010\u592a\u6e56\u9ed1\u3011\u68d2\u9aa8","price":"29.00","img":"\/hyg2.0\/data\/upload\/item\/1703\/22\/58d2323765968_b.jpg","intro":"400\u514b\/\u76d2\u301012\u53f7\u5468\u4e94\u5230\u5e97\u3011","is_book":"1","book_status":"filled","is_short":"0","url":"\/hyg2.0\/Item-index-id-648","book_remark":"\u8ba2\u5355\u5df2\u6ee1"},{"id":"649","cate_id":"390","title":"\u3010\u592a\u6e56\u9ed1\u3011\u52d2\u6392","price":"45.00","img":"\/hyg2.0\/data\/upload\/item\/1703\/22\/58d2344c6305a_b.jpg","intro":"300\u514b\/\u76d2\u301012\u53f7\u5468\u4e94\u5230\u5e97\u3011","is_book":"1","book_status":"filled","is_short":"0","url":"\/hyg2.0\/Item-index-id-649","book_remark":"\u8ba2\u5355\u5df2\u6ee1"},{"id":"650","cate_id":"390","title":"\u3010\u592a\u6e56\u9ed1\u3011\u732a\u811a","price":"32.00","img":"\/hyg2.0\/data\/upload\/item\/1703\/22\/58d2354831e9b_b.jpg","intro":"400\u514b\/\u76d2\u301012\u53f7\u5468\u4e94\u5230\u5e97\u3011","is_book":"1","book_status":"filled","is_short":"0","url":"\/hyg2.0\/Item-index-id-650","book_remark":"\u8ba2\u5355\u5df2\u6ee1"},{"id":"652","cate_id":"401","title":"\u5317\u5927\u8352\u4eb2\u6c11\u6709\u673a\u539f\u5473\u6302\u9762","price":"10.00","img":"\/hyg2.0\/data\/upload\/item\/1703\/24\/58d4883ed982f_b.jpg","intro":"400\u514b\/\u888b","is_book":"0","book_status":"booked","is_short":"0","url":"\/hyg2.0\/Item-index-id-652","book_remark":""},{"id":"653","cate_id":"401","title":"\u5317\u5927\u8352\u4eb2\u6c11\u6709\u673a\u9762\u7c89","price":"42.00","img":"\/hyg2.0\/data\/upload\/item\/1703\/24\/58d48ac72465e_b.jpg","intro":"2.5\u5343\u514b\/\u888b","is_book":"0","book_status":"booked","is_short":"0","url":"\/hyg2.0\/Item-index-id-653","book_remark":""}]},"dialog":""}