{"status":1,"msg":"OPERATION_SUCCESS","data":{"totalPages":18,"total":"346","page":1,"pageSize":20,"list":[{"id":"693","cate_id":"398","title":"\u5df4\u9a6c\u4e3d\u7405\u77ff\u6cc9\u6c34","price":"8.00","img":"\/hyg2.0\/data\/upload\/item\/1704\/13\/58eed3a60ca30_b.jpg","intro":"\u4eca\u5e74\u65b0\u5305\u88c5\uff0c500ml\/\u74f6","is_book":"0","book_status":"booked","is_short":"0","url":"\/hyg2.0\/Item-index-id-693","book_remark":""},{"id":"694","cate_id":"398","title":"\u5df4\u9a6c\u4e3d\u7405\u77ff\u6cc9\u6c34","price":"40.00","img":"\/hyg2.0\/data\/upload\/item\/1704\/13\/58eed71ded826_b.jpg","intro":"\u4eca\u5e74\u65b0\u5305\u88c5\uff0c4.6L\/\u6876","is_book":"0","book_status":"booked","is_short":"0","url":"\/hyg2.0\/Item-index-id-694","book_remark":""},{"id":"362","cate_id":"403","title":"\u676f\u5177\u718a\u4fdd\u6e29\u676f(\u7c89\u8272\u5154)","price":"138.00","img":"\/hyg2.0\/data\/upload\/item\/1611\/23\/58354e3c5d042_b.JPG","intro":"","is_book":"0","book_status":"booked","is_short":"0","url":"\/hyg2.0\/Item-index-id-362","book_remark":""},{"id":"363","cate_id":"403","title":"\u676f\u5177\u718a\u4fdd\u6e29\u676f(\u5e05\u5e05\u9a6c)","price":"138.00","img":"\/hyg2.0\/data\/upload\/item\/1703\/12\/58c4ec8abc0fc_b.jpg","intro":"","is_book":"0","book_status":"booked","is_short":"0","url":"\/hyg2.0\/Item-index-id-363","book_remark":""},{"id":"369","cate_id":"403","title":"\u676f\u5177\u718a\u4fdd\u6e29\u676f(\u840c\u840c\u7334)","price":"138.00","img":"\/hyg2.0\/data\/upload\/item\/1611\/29\/583cf31eefa4c_b.JPG","intro":"","is_book":"0","book_status":"booked","is_short":"0","url":"\/hyg2.0\/Item-index-id-369","book_remark":""},{"id":"370","cate_id":"403","title":"\u676f\u5177\u718a\u4fdd\u6e29\u676f(\u8d2a\u5403\u86c7)","price":"138.00","img":"\/hyg2.0\/data\/upload\/item\/1611\/29\/583cf4d594ae1_b.JPG","intro":"","is_book":"0","book_status":"booked","is_short":"0","url":"\/hyg2.0\/Item-index-id-370","book_remark":""},{"id":"410","cate_id":"395","title":"\u91ce\u751f\u9ed1\u67b8\u675e\u793c\u76d2\u88c5A\u6b3e","price":"198.00","img":"\/hyg2.0\/data\/upload\/item\/1612\/13\/584f9f29162ad_b.JPG","intro":"198\u5143\/\u76d2(70g*3\u74f6)","is_book":"0","book_status":"booked","is_short":"0","url":"\/hyg2.0\/Item-index-id-410","book_remark":""},{"id":"386","cate_id":"395","title":"\u65b0\u7586\u91ce\u751f\u9ed1\u67b8\u675e","price":"85.00","img":"\/hyg2.0\/data\/upload\/item\/1612\/06\/5846659a40e76_b.JPG","intro":"85\u5143\/\u7f50(100g)","is_book":"0","book_status":"booked","is_short":"0","url":"\/hyg2.0\/Item-index-id-386","book_remark":""},{"id":"80","cate_id":"396","title":"\u5317\u6781\u751c\u867e","price":"40.00","img":"\/hyg2.0\/data\/upload\/item\/1612\/01\/583fdaff63ecd_b.JPG","intro":"40\u5143\/\u65a4\u3002","is_book":"0","book_status":"booked","is_short":"1","url":"\/hyg2.0\/Item-index-id-80","book_remark":"\u5df2\u65ad\u8d27"},{"id":"437","cate_id":"396","title":"3\u53f7\u65af\u5e72\u6bd4\u9ccc\u867e","price":"30.00","img":"\/hyg2.0\/data\/upload\/item\/1703\/04\/58ba6e4c22c18_b.jpg","intro":"890\u5143\/\u76d2(4\u65a4)\uff0c\u6563\u79f0245\u5143\/\u65a4\uff0c\u4f26\u53ea\u518d\u79f0\u91cd\u90fd\u53ef\u4ee5\uff0c\u4e00\u53ea50\u514b\u5de6\u53f3\uff0c\u4e00\u65a411-13\u53ea\u5de6\u53f3\uff0c\u6563\u79f0\u8bf7\u5148\u8054\u7cfb\u5ba2\u670d","is_book":"1","book_status":"booked","is_short":"0","url":"\/hyg2.0\/Item-index-id-437","book_remark":"\u53ef\u9884\u8ba2"},{"id":"439","cate_id":"396","title":"\u963f\u6839\u5ef7\u7ea2\u867e","price":"50.00","img":"\/hyg2.0\/data\/upload\/item\/1612\/16\/5853404049d2b_b.JPG","intro":"178\u5143\/\u76d2(4\u65a4)\uff0c50\u5143\/\u65a4\uff0c\u6563\u79f0\u8bf7\u5148\u54a8\u8be2\u5ba2\u670d\uff0c\u79f0\u5b8c\u91cd\u540e\u518d\u4e0b\u5355","is_book":"0","book_status":"booked","is_short":"0","url":"\/hyg2.0\/Item-index-id-439","book_remark":""},{"id":"625","cate_id":"396","title":"\u65e5\u672c\u751c\u867e","price":"185.00","img":"\/hyg2.0\/data\/upload\/item\/1703\/10\/58c233df84113_b.jpg","intro":"185\u5143\u4e00\u76d2\u30102\u65a4\u3011","is_book":"0","book_status":"booked","is_short":"0","url":"\/hyg2.0\/Item-index-id-625","book_remark":""},{"id":"294","cate_id":"396","title":"\u7cbe\u54c1\u7f94\u7f8a\u5bf8\u6392","price":"47.00","img":"\/hyg2.0\/data\/upload\/item\/1610\/14\/580079bbb2c88_b.JPG","intro":"500g\/\u5305","is_book":"0","book_status":"booked","is_short":"0","url":"\/hyg2.0\/Item-index-id-294","book_remark":""},{"id":"666","cate_id":"396","title":"\u4e1c\u6d77\u6e14\u8239\u867e\u76ae","price":"65.00","img":"\/hyg2.0\/data\/upload\/item\/1703\/27\/58d8bc90da4c7_b.jpg","intro":"1\u65a4\/\u6876","is_book":"0","book_status":"booked","is_short":"0","url":"\/hyg2.0\/Item-index-id-666","book_remark":""},{"id":"314","cate_id":"396","title":"\u548c\u725bM5\u725b\u6392(\u539f\u5207)","price":"58.00","img":"\/hyg2.0\/data\/upload\/item\/1703\/07\/58be151108307_b.jpg","intro":"\u9171\u6599\u5305\u6709\u9ed1\u80e1\u6912\u9171\u548c\u8611\u83c7\u9171\u4e24\u79cd","is_book":"0","book_status":"booked","is_short":"0","url":"\/hyg2.0\/Item-index-id-314","book_remark":""},{"id":"305","cate_id":"396","title":"\u6fb3\u6d32\u513f\u7ae5\u725b\u6392\uff08\u8c03\u7406\uff09","price":"29.00","img":"\/hyg2.0\/data\/upload\/item\/1703\/07\/58be1567cfaf4_b.jpg","intro":"\u9171\u6599\u5305\u6709\u9ed1\u80e1\u6912\u9171\u548c\u8611\u83c7\u9171\u4e24\u79cd","is_book":"0","book_status":"booked","is_short":"0","url":"\/hyg2.0\/Item-index-id-305","book_remark":""},{"id":"306","cate_id":"396","title":"3A\u96ea\u82b1\u725b\u6392(\u725b\u5c0f\u6392)","price":"75.00","img":"\/hyg2.0\/data\/upload\/item\/1703\/07\/58be16dd10118_b.jpg","intro":"\u9171\u6599\u5305\u6709\u9ed1\u80e1\u6912\u9171\u548c\u8611\u83c7\u9171\u4e24\u79cd","is_book":"0","book_status":"booked","is_short":"0","url":"\/hyg2.0\/Item-index-id-306","book_remark":""},{"id":"313","cate_id":"396","title":"\u6fb3\u6d32T\u9aa8\u725b\u6392\uff08\u8c03\u7406\uff09","price":"38.00","img":"\/hyg2.0\/data\/upload\/item\/1703\/12\/58c4efae0a67e_b.jpg","intro":"\u9171\u6599\u5305\u6709\u9ed1\u80e1\u6912\u9171\u548c\u8611\u83c7\u9171\u4e24\u79cd\uff0c\u8bf7\u5728\u7559\u8a00\u5907\u6ce8","is_book":"0","book_status":"booked","is_short":"0","url":"\/hyg2.0\/Item-index-id-313","book_remark":""},{"id":"315","cate_id":"396","title":"\u5b89\u683c\u65af\u897f\u51b7\u725b\u6392\uff08\u539f\u5207\uff09","price":"68.00","img":"\/hyg2.0\/data\/upload\/item\/1703\/12\/58c4f01fbab24_b.jpg","intro":"\u9171\u6599\u5305\u6709\u9ed1\u80e1\u6912\u9171\u548c\u8611\u83c7\u9171\u4e24\u79cd","is_book":"0","book_status":"booked","is_short":"0","url":"\/hyg2.0\/Item-index-id-315","book_remark":""},{"id":"343","cate_id":"390","title":"\u6563\u79f0\uff0c\u8fd0\u8d39\uff0c\u5dee\u4ef7","price":"1.00","img":"\/hyg2.0\/data\/upload\/item\/1611\/19\/583010d74718d_b.JPG","intro":"","is_book":"0","book_status":"booked","is_short":"0","url":"\/hyg2.0\/Item-index-id-343","book_remark":""}]},"dialog":""}