{"status":1,"msg":"OPERATION_SUCCESS","data":{"totalPages":18,"total":"346","page":3,"pageSize":20,"list":[{"id":"655","cate_id":"401","title":"\u5317\u5927\u8352\u4eb2\u6c11\u6709\u673a\u997a\u5b50\u7c89","price":"28.00","img":"\/hyg2.0\/data\/upload\/item\/1703\/24\/58d4908f1729e_b.jpg","intro":"1.5\u5343\u514b\/\u888b","is_book":"0","book_status":"booked","is_short":"0","url":"\/hyg2.0\/Item-index-id-655","book_remark":""},{"id":"656","cate_id":"401","title":"\u5317\u5927\u8352\u4eb2\u6c11\u9ad8\u7b4b\u7c89\u9762\u5305\u7c89 ","price":"30.00","img":"\/hyg2.0\/data\/upload\/item\/1703\/24\/58d49552a50b0_b.jpg","intro":"1.25kg\/\u5305","is_book":"0","book_status":"booked","is_short":"0","url":"\/hyg2.0\/Item-index-id-656","book_remark":""},{"id":"657","cate_id":"401","title":"\u5317\u5927\u8352\u4eb2\u6c11\u4f4e\u7b4b\u86cb\u7cd5\u7c89\u9762\u7c89","price":"30.00","img":"\/hyg2.0\/data\/upload\/item\/1703\/24\/58d4967939203_b.jpg","intro":"1.25kg\/\u5305","is_book":"0","book_status":"booked","is_short":"0","url":"\/hyg2.0\/Item-index-id-657","book_remark":""},{"id":"661","cate_id":"390","title":"\u3010\u592a\u6e56\u9ed1\u3011\u540e\u817f\u7eaf\u7cbe","price":"25.00","img":"\/hyg2.0\/data\/upload\/item\/1703\/26\/58d73df03c06f_b.jpg","intro":"300\u514b\/\u76d2\u301012\u53f7\u5468\u4e94\u5230\u5e97\u3011","is_book":"1","book_status":"filled","is_short":"0","url":"\/hyg2.0\/Item-index-id-661","book_remark":"\u8ba2\u5355\u5df2\u6ee1"},{"id":"664","cate_id":"390","title":"\u3010\u592a\u6e56\u9ed1\u3011\u6885\u8089","price":"24.00","img":"\/hyg2.0\/data\/upload\/item\/1703\/27\/58d87439f2604_b.jpg","intro":"250\u514b\/\u76d2\uff0c\u80a9\u80db\u9aa8\u7684\u4e2d\u5fc3\u8fd9\u4e2a\u90e8\u4f4d\u53ef\u4ee5\u8bf4\u662f\u732a\u8eab\u4e0a\u6700\u597d\uff0c\u6700\u5ae9\u7684\u4e00\u5757\u8089\uff0c\u80a5\u5c11\u7626\u591a\u3002\u5e7f\u4e1c\u505a\u53c9\u70e7\u539f\u6599\u5c31\u53ea\u7528\u8fd9\u4e2a\u90e8\u4f4d\u301012\u53f7\u5468\u4e94\u5230\u5e97\u3011","is_book":"1","book_status":"filled","is_short":"0","url":"\/hyg2.0\/Item-index-id-664","book_remark":"\u8ba2\u5355\u5df2\u6ee1"},{"id":"371","cate_id":"403","title":"\u676f\u5177\u718a\u7116\u70e7\u676f(\u67e0\u6aac\u9ec4)","price":"125.00","img":"\/hyg2.0\/data\/upload\/item\/1611\/29\/583d1ad4838b7_b.JPG","intro":"","is_book":"0","book_status":"booked","is_short":"0","url":"\/hyg2.0\/Item-index-id-371","book_remark":""},{"id":"372","cate_id":"403","title":"\u676f\u5177\u718a\u7116\u70e7\u676f(\u8c61\u7259\u767d)","price":"125.00","img":"\/hyg2.0\/data\/upload\/item\/1611\/29\/583d1c1636d86_b.JPG","intro":"","is_book":"0","book_status":"booked","is_short":"0","url":"\/hyg2.0\/Item-index-id-372","book_remark":""},{"id":"373","cate_id":"403","title":"\u676f\u5177\u718a\u7116\u70e7\u676f(\u897f\u74dc\u7ea2)","price":"125.00","img":"\/hyg2.0\/data\/upload\/item\/1611\/29\/583d1d71be56b_b.JPG","intro":"","is_book":"0","book_status":"booked","is_short":"0","url":"\/hyg2.0\/Item-index-id-373","book_remark":""},{"id":"374","cate_id":"403","title":"\u676f\u5177\u718a\u7116\u70e7\u676f(\u5b87\u5b99\u9ed1)","price":"125.00","img":"\/hyg2.0\/data\/upload\/item\/1611\/29\/583d1e209f6b1_b.JPG","intro":"","is_book":"0","book_status":"booked","is_short":"0","url":"\/hyg2.0\/Item-index-id-374","book_remark":""},{"id":"477","cate_id":"393","title":"\u96f6\u98df\u793c\u76d2","price":"1.00","img":"\/hyg2.0\/data\/upload\/item\/1701\/05\/586dac93af401_b.JPG","intro":"\u96f6\u98df\u793c\u76d2\uff0c\u53ef\u968f\u610f\u642d\u914d\uff0c\u5171\u67093\u6b3e\u793c\u76d2","is_book":"0","book_status":"booked","is_short":"0","url":"\/hyg2.0\/Item-index-id-477","book_remark":""},{"id":"478","cate_id":"393","title":"\u4e94\u8c37\u6742\u7cae\u793c\u76d2","price":"1.00","img":"\/hyg2.0\/data\/upload\/item\/1701\/05\/586dad981b280_b.JPG","intro":"\u4e94\u8c37\u6742\u7cae\u793c\u76d2\uff0c\u53ef\u968f\u610f\u642d\u914d\uff0c\u5171\u67093\u6b3e\u793c\u76d2","is_book":"0","book_status":"booked","is_short":"0","url":"\/hyg2.0\/Item-index-id-478","book_remark":""},{"id":"538","cate_id":"397","title":"\u5143\u5b9e\u7eaf\u725b\u5976","price":"6.00","img":"\/hyg2.0\/data\/upload\/item\/1701\/15\/587b2249a6b92_b.JPG","intro":"\u3010\u964d\u4ef7\u4e86\u3011\u5143\u5b9e\u5168\u8102\u7eaf\u725b\u5976\uff0c\u6bd4\u5229\u65f6\u8fdb\u53e3\uff0c200ml\/\u74f6\uff0c\u4e00\u7bb112\u74f6\uff0c\u539f\u88c5\u5927\u7bb130\u74f6","is_book":"0","book_status":"arrived","is_short":"0","url":"\/hyg2.0\/Item-index-id-538","book_remark":""},{"id":"647","cate_id":"390","title":"\u3010\u592a\u6e56\u9ed1\u3011\u5c0f\u91cc\u810a","price":"35.00","img":"\/hyg2.0\/data\/upload\/item\/1703\/22\/58d231c4b938f_b.jpg","intro":"300\u514b\/\u76d2\u301012\u53f7\u5468\u4e94\u5230\u5e97\u3011","is_book":"1","book_status":"filled","is_short":"0","url":"\/hyg2.0\/Item-index-id-647","book_remark":"\u8ba2\u5355\u5df2\u6ee1"},{"id":"518","cate_id":"390","title":"\u6f58\u8001\u4f2f\u8c46\u8150\u5e72(250g\u4e00\u5305)","price":"11.00","img":"\/hyg2.0\/data\/upload\/item\/1701\/08\/5871dce3b9e65_b.JPG","intro":"11\u5143\/\u5305(250g\uff0c\u5185\u542b4\u5757)\u3002","is_book":"1","book_status":"filled","is_short":"1","url":"\/hyg2.0\/Item-index-id-518","book_remark":"\u8ba2\u5355\u5df2\u6ee1"},{"id":"78","cate_id":"397","title":"\u4e09\u5f97\u5229\u4e73\u9178\u83cc\u884c\u8d27","price":"9.00","img":"\/hyg2.0\/data\/upload\/item\/1608\/06\/57a56ce54284e_b.JPG","intro":"\u65e5\u672c\u539f\u88c5\u8fdb\u53e3\u884c\u8d27 \uff0c9\u5143\/\u74f6\u3002210\u5143\/\u7bb1\u3002","is_book":"1","book_status":"arrived","is_short":"1","url":"\/hyg2.0\/Item-index-id-78","book_remark":"\u5df2\u5230\u8d27"},{"id":"87","cate_id":"402","title":"\u9053\u5409\u8349\u9999\u8549\u7247","price":"9.00","img":"\/hyg2.0\/data\/upload\/item\/1705\/07\/590ebbc86d0a4_b.jpg","intro":"60\u514b\/\u888b","is_book":"0","book_status":"booked","is_short":"0","url":"\/hyg2.0\/Item-index-id-87","book_remark":""},{"id":"406","cate_id":"390","title":"\u5927\u7ea22\u53f7\u706b\u9f99\u679c(8\u65a4\u88c5)","price":"18.00","img":"\/hyg2.0\/data\/upload\/item\/1612\/08\/584906d923403_b.JPG","intro":"125\u5143\/\u7bb1(8\u65a4)\uff0c18\u5143\/\u65a4\uff0c\u6563\u79f0\u8bf7\u5148\u8054\u7cfb\u5ba2\u670d\u3002","is_book":"1","book_status":"booked","is_short":"0","url":"\/hyg2.0\/Item-index-id-406","book_remark":"\u53ef\u9884\u8ba2"},{"id":"601","cate_id":"390","title":"\u67e0\u6aac\u3010\u4e00\u53052\u4e2a\u3011","price":"4.00","img":"\/hyg2.0\/data\/upload\/item\/1703\/05\/58bb815551be2_b.jpg","intro":"4\u5143\/\u6bcf\u888b\u30102\u4e2a\u3011","is_book":"1","book_status":"arrived","is_short":"0","url":"\/hyg2.0\/Item-index-id-601","book_remark":"\u5df2\u5230\u8d27"},{"id":"474","cate_id":"390","title":"\u4e00\u4eba\u4e00\u53e3\u83b2\u96fe","price":"35.00","img":"\/hyg2.0\/data\/upload\/item\/1612\/28\/58632f70d6948_b.JPG","intro":"3\u65a4\u88c595\u5143\uff0c5\u65a4\u88c5150\u5143","is_book":"1","book_status":"booked","is_short":"0","url":"\/hyg2.0\/Item-index-id-474","book_remark":"\u53ef\u9884\u8ba2"},{"id":"476","cate_id":"393","title":"\u8fdb\u53e3\u6d77\u9c9c\u793c\u76d2","price":"1.00","img":"\/hyg2.0\/data\/upload\/item\/1612\/28\/5863524e37774_b.JPG","intro":"\u8fdb\u53e3\u6d77\u9c9c\u793c\u76d2\uff0c\u53ef\u968f\u610f\u642d\u914d\uff0c\u5171\u67093\u6b3e\u793c\u76d2","is_book":"0","book_status":"booked","is_short":"0","url":"\/hyg2.0\/Item-index-id-476","book_remark":""}]},"dialog":""}